<?xml version="1.0" encoding="iso-8859-1"?>
<!-- Generator: Adobe Illustrator 19.0.0, SVG Export Plug-In . SVG Version: 6.00 Build 0)  -->
<svg fill="white" version="1.1" id="Layer_1" xmlns="http://www.w3.org/2000/svg" xmlns:xlink="http://www.w3.org/1999/xlink" x="0px" y="0px"
	 viewBox="0 0 496 496" xml:space="preserve">
<g>
	<g>
		<g>
			<rect x="80" y="384" width="16" height="16"/>
			<path d="M496,288c0-33.768-22.96-62.24-54.848-69.944c9.272-31.472-3.904-65.592-33.152-82.48
				c-24.096-13.912-52.856-12.488-74.888,1.72C318.6,58.144,249.928,0,168,0C75.368,0,0,75.36,0,168
				c0,71.104,43.712,132.144,106.928,156.584C45.472,339.592,0,390.784,0,451.632v7.272C0,479.36,17.944,496,40,496h208
				c22.056,0,40-16.64,40-37.096v-7.272c0-1.536-0.192-3.024-0.248-4.544c12.32-3.52,23.456-10,32.248-19.2
				c13.816,14.512,32.656,22.272,51.904,22.272c12.272,0,24.712-3.168,36.104-9.736c29.24-16.88,42.424-51.008,33.152-82.48
				C473.04,350.24,496,321.768,496,288z M318.32,146.488c-16.64-16.4-39.936-23.472-62.472-19.552l47.864-27.632
				C311,113.776,315.944,129.664,318.32,146.488z M295.768,85.416l-48.76,28.144c-6.6-9.504-14.832-17.704-24.232-24.24
				l28.16-48.776C268.832,52.168,284.16,67.408,295.768,85.416z M198.848,218.056c-17.56,4.24-32.384,14.808-42.184,29.056
				C117.808,241.56,88,207.752,88,168c0-44.112,35.888-80,80-80c30.168,0,57.872,17.368,71.36,43.92
				c-2.488,1.088-4.96,2.264-7.36,3.656C202.76,152.464,189.576,186.584,198.848,218.056z M160,16.408V40h16V16.376
				c21.88,1.128,42.592,6.72,61.112,16.12l-28.176,48.808c-10.248-4.864-21.376-7.96-32.928-8.944V56h-16v16.408
				c-11.64,0.968-22.656,4.04-32.752,8.8L99.2,32.64C117.632,23.232,138.2,17.552,160,16.408z M85.336,40.624l28.032,48.544
				c-9.312,6.472-17.4,14.544-23.92,23.824L40.864,84.944C52.456,67.256,67.616,52.16,85.336,40.624z M32.84,98.784l48.568,28.04
				c-4.776,10-7.92,20.912-8.968,32.448h-56C17.68,137.584,23.408,117.112,32.84,98.784z M16.344,175.272h56.008
				c0.88,11.496,3.856,22.456,8.512,32.544L31.92,236.072C22.736,217.624,17.36,197.016,16.344,175.272z M39.856,249.968
				l48.888-28.224c6.368,9.344,14.304,17.536,23.48,24.16L83.992,294.8C66.272,283.088,51.232,267.816,39.856,249.968z
				 M97.76,302.96l28.152-48.76c7.184,3.544,14.888,6.152,22.936,7.8c-3.104,8.072-4.848,16.832-4.848,26
				c0,10.768,2.488,21.368,7.08,31C131.928,316.88,113.952,311.344,97.76,302.96z M272,458.904C272,470.536,261.232,480,248,480H40
				c-13.232,0-24-9.464-24-21.096v-7.272c0-42.688,25.808-79.952,64-99.984V368h16v-23.488c12.48-4.584,25.936-7.352,40-8.144V400
				h16v-63.632c14.064,0.792,27.52,3.568,40,8.144V400h16v-48.352c38.192,20.032,64,57.296,64,99.984V458.904z M431.912,343.368
				l-17.84-10.304l-8,13.856l17.84,10.304c10.424,25.816,0.456,55.264-23.912,69.328c-24.36,14.064-54.856,7.992-72-13.968V392h-16
				v20.592c-6.712,8.584-15.688,14.936-25.944,18.416c-5.832-33.648-25.576-63.048-53.76-83.136l1.632-0.944l-8-13.856l-9.048,5.232
				c-13.704-7.392-28.792-12.848-44.904-15.76C164.16,312.608,160,300.696,160,288c0-28.136,20.52-51.496,48.088-55.368
				l17.84,10.304l8-13.856l-17.84-10.304c-10.424-25.816-0.456-55.264,23.912-69.328c24.352-14.064,54.864-7.984,72,13.96V184h16
				v-20.6c17.136-21.936,47.624-28.04,72-13.96c24.368,14.072,34.336,43.52,23.912,69.328l-17.84,10.304l8,13.856l17.84-10.304
				C459.48,236.504,480,259.864,480,288S459.48,339.496,431.912,343.368z"/>
			<path d="M320,216c-39.704,0-72,32.304-72,72c0,39.704,32.296,72,72,72c39.704,0,72-32.296,72-72C392,248.304,359.704,216,320,216
				z M320,344c-30.872,0-56-25.128-56-56s25.128-56,56-56s56,25.128,56,56S350.872,344,320,344z"/>
		</g>
	</g>
</g>
<g>
</g>
<g>
</g>
<g>
</g>
<g>
</g>
<g>
</g>
<g>
</g>
<g>
</g>
<g>
</g>
<g>
</g>
<g>
</g>
<g>
</g>
<g>
</g>
<g>
</g>
<g>
</g>
<g>
</g>
</svg>
